^C:\Users\natha\source\repos\plugin\plugin\plugin.vcxproj
C:\Users\natha\source\repos\plugin\x64\Debug\plugin.lib
C:\Users\natha\source\repos\plugin\x64\Debug\plugin.exp
^C:\Users\natha\source\repos\plugin\plugin\plugin.vcxproj
C:\Users\natha\source\repos\plugin\x64\Debug\plugin.lib
C:\Users\natha\source\repos\plugin\x64\Debug\plugin.exp
^C:\Users\natha\source\repos\plugin\plugin\plugin.vcxproj
C:\Users\natha\source\repos\plugin\x64\Debug\plugin.lib
C:\Users\natha\source\repos\plugin\x64\Debug\plugin.exp
^C:\Users\natha\source\repos\plugin\plugin\plugin.vcxproj
C:\Users\natha\source\repos\plugin\x64\Debug\plugin.lib
C:\Users\natha\source\repos\plugin\x64\Debug\plugin.exp
^C:\Users\natha\source\repos\plugin\plugin\plugin.vcxproj
C:\Users\natha\source\repos\plugin\x64\Debug\plugin.lib
C:\Users\natha\source\repos\plugin\x64\Debug\plugin.exp
^C:\Users\natha\source\repos\plugin\plugin\plugin.vcxproj
C:\Users\natha\source\repos\plugin\x64\Debug\plugin.lib
C:\Users\natha\source\repos\plugin\x64\Debug\plugin.exp
^C:\Users\natha\source\repos\plugin\plugin\plugin.vcxproj
C:\Users\natha\source\repos\plugin\x64\Debug\plugin.lib
C:\Users\natha\source\repos\plugin\x64\Debug\plugin.exp
^C:\Users\natha\source\repos\plugin\plugin\plugin.vcxproj
C:\Users\natha\source\repos\plugin\x64\Debug\plugin.lib
C:\Users\natha\source\repos\plugin\x64\Debug\plugin.exp
